﻿Actor,Scale of action,Duration of engagement,Diversity of domains of action,Partnerships,Budget,Twitter
EEB,1,3,9,12,3,54
International Rivers Network,1,3,1,12,3,36
IUCN,3,3,9,12,15,81
TNC,2,3,1,12,15,108
WWF,2,3,9,12,15,108
