﻿Actor,Scale of action,Duration of engagement,Diversity of domains of action,Partnerships,Budget,Twitter
European Water Movement,1,2,1,12,1,3
ICRC,3,3,3,12,15,108
Simavi ,1,3,1,12,6,3
Water Aid,3,3,1,12,3,54
Water Mission,2,3,1,12,6,18
Women for Water Partnership,2,2,1,12,1,3
Aqua for all,1,2,1,12,3,3
Bill & Melinda Gates Foundation,2,3,5,12,15,72
